-----------------------Getting Request data--------------------------
Request method:	GET
Request URI:	https://gorest.co.in/public-api/users
Proxy:			<none>
Request params:	<none>
Query params:	<none>
Form params:	<none>
Path params:	<none>
Headers:		Authorization=Bearer ibvjqtYKqkC1HlLfBOzp9mvVv_ftD4p6zhu9
				Accept=*/*
Cookies:		<none>
Multiparts:		<none>
Body:			<none>
-----------------------Getting Response data--------------------------
HTTP/1.1 200 OK
Server: nginx
Date: Sun, 19 Jan 2020 11:05:43 GMT
Content-Type: application/json; charset=UTF-8
Transfer-Encoding: chunked
Connection: keep-alive
Vary: Accept-Encoding
Vary: Accept
X-Rate-Limit-Limit: 30
X-Rate-Limit-Remaining: 29
X-Rate-Limit-Reset: 2
X-Pagination-Total-Count: 1698
X-Pagination-Page-Count: 85
X-Pagination-Current-Page: 1
X-Pagination-Per-Page: 20
Link: <https://gorest.co.in/public-api/users?page=1>; rel=self, <https://gorest.co.in/public-api/users?page=2>; rel=next, <https://gorest.co.in/public-api/users?page=85>; rel=last
Set-Cookie: _csrf=a25af0f0e7ef1ed9016abbb19c9ea13d5e8017466d9fea12d06ec7ee75631cbfa%3A2%3A%7Bi%3A0%3Bs%3A5%3A%22_csrf%22%3Bi%3A1%3Bs%3A32%3A%22uSSjlTAoG-ZZRSGlyZibXKorhKqAXTz4%22%3B%7D; path=/; HttpOnly
Content-Encoding: gzip

{
    "_meta": {
        "success": true,
        "code": 200,
        "message": "OK. Everything worked as expected.",
        "totalCount": 1698,
        "pageCount": 85,
        "currentPage": 1,
        "perPage": 20,
        "rateLimit": {
            "limit": 30,
            "remaining": 29,
            "reset": 2
        }
    },
    "result": [
        {
            "id": "1",
            "first_name": "Mafalda",
            "last_name": "Pacocha",
            "gender": "female",
            "dob": "1957-01-21",
            "email": "grayce.leannon@example.org",
            "phone": "1-937-287-4450 x5692",
            "website": "http://www.fisher.net/facere-perferendis-quae-aut-distinctio-nulla-nemo.html",
            "address": "8854 Watsica View Apt. 174\nNew Marcelino, MA 39236-0851",
            "status": "inactive",
            "_links": {
                "self": {
                    "href": "https://gorest.co.in/public-api/users/1"
                },
                "edit": {
                    "href": "https://gorest.co.in/public-api/users/1"
                },
                "avatar": {
                    "href": "https://lorempixel.com/250/250/people/?66628"
                }
            }
        },
        {
            "id": "2",
            "first_name": "Jed",
            "last_name": "Schroeder",
            "gender": "male",
            "dob": "2003-05-04",
            "email": "bschoen@example.net",
            "phone": "237-662-8657",
            "website": "http://www.ledner.com/et-et-aut-doloribus-enim-nam.html",
            "address": "9537 Quitzon Avenue Suite 951\nHartmannview, VT 79766",
            "status": "inactive",
            "_links": {
                "self": {
                    "href": "https://gorest.co.in/public-api/users/2"
                },
                "edit": {
                    "href": "https://gorest.co.in/public-api/users/2"
                },
                "avatar": {
                    "href": "https://lorempixel.com/250/250/people/?21672"
                }
            }
        },
        {
            "id": "3",
            "first_name": "Juston",
            "last_name": "Tromp",
            "gender": "male",
            "dob": "1950-06-11",
            "email": "loren.von@example.org",
            "phone": "489.267.6973",
            "website": "http://www.christiansen.biz/magni-et-harum-dolorem-dolorum-consequuntur",
            "address": "3998 Gulgowski Rest\nAbshireberg, CO 53441",
            "status": "active",
            "_links": {
                "self": {
                    "href": "https://gorest.co.in/public-api/users/3"
                },
                "edit": {
                    "href": "https://gorest.co.in/public-api/users/3"
                },
                "avatar": {
                    "href": "https://lorempixel.com/250/250/people/?74357"
                }
            }
        },
        {
            "id": "4",
            "first_name": "Jacinto",
            "last_name": "Mosciski",
            "gender": "male",
            "dob": "1935-05-18",
            "email": "willow98@example.org",
            "phone": "1-436-516-4561 x8578",
            "website": "https://www.parker.biz/voluptatem-ab-quis-voluptas-provident",
            "address": "737 Lueilwitz Island Suite 841\nNorth Jessika, NY 31031",
            "status": "inactive",
            "_links": {
                "self": {
                    "href": "https://gorest.co.in/public-api/users/4"
                },
                "edit": {
                    "href": "https://gorest.co.in/public-api/users/4"
                },
                "avatar": {
                    "href": "https://lorempixel.com/250/250/people/?74557"
                }
            }
        },
        {
            "id": "5",
            "first_name": "Ruthe",
            "last_name": "Hammes",
            "gender": "female",
            "dob": "1995-01-11",
            "email": "jbrekke@example.net",
            "phone": "998.529.6241 x4241",
            "website": "http://dibbert.org/",
            "address": "92503 Kadin Mountain Suite 419\nLeonland, VT 66751",
            "status": "inactive",
            "_links": {
                "self": {
                    "href": "https://gorest.co.in/public-api/users/5"
                },
                "edit": {
                    "href": "https://gorest.co.in/public-api/users/5"
                },
                "avatar": {
                    "href": "https://lorempixel.com/250/250/people/?65379"
                }
            }
        },
        {
            "id": "6",
            "first_name": "Liliane",
            "last_name": "Carroll",
            "gender": "female",
            "dob": "1924-10-19",
            "email": "neichmann@example.com",
            "phone": "535.814.8495 x080",
            "website": "http://swift.info/corporis-beatae-ratione-et-sint-exercitationem-blanditiis.html",
            "address": "5020 Johnson Stream Apt. 468\nNew Nasir, IN 32059",
            "status": "inactive",
            "_links": {
                "self": {
                    "href": "https://gorest.co.in/public-api/users/6"
                },
                "edit": {
                    "href": "https://gorest.co.in/public-api/users/6"
                },
                "avatar": {
                    "href": "https://lorempixel.com/250/250/people/?80500"
                }
            }
        },
        {
            "id": "7",
            "first_name": "Meredith",
            "last_name": "Keebler",
            "gender": "female",
            "dob": "2008-02-29",
            "email": "hackett.sammie@example.net",
            "phone": "806.681.0936",
            "website": "http://www.boyle.net/doloribus-repellat-impedit-nam-pariatur-et-modi-impedit-qui",
            "address": "8108 Frami Ferry Suite 239\nNew Walkerport, MI 98882",
            "status": "inactive",
            "_links": {
                "self": {
                    "href": "https://gorest.co.in/public-api/users/7"
                },
                "edit": {
                    "href": "https://gorest.co.in/public-api/users/7"
                },
                "avatar": {
                    "href": "https://lorempixel.com/250/250/people/?76238"
                }
            }
        },
        {
            "id": "8",
            "first_name": "Kenya",
            "last_name": "Turner",
            "gender": "female",
            "dob": "1991-09-20",
            "email": "vgoldner@example.net",
            "phone": "+1-735-650-5653",
            "website": "http://ziemann.com/quod-non-ullam-voluptatem-blanditiis-dolorem",
            "address": "671 Sipes Dale Suite 930\nLaurianemouth, ID 73301",
            "status": "active",
            "_links": {
                "self": {
                    "href": "https://gorest.co.in/public-api/users/8"
                },
                "edit": {
                    "href": "https://gorest.co.in/public-api/users/8"
                },
                "avatar": {
                    "href": "https://lorempixel.com/250/250/people/?30376"
                }
            }
        },
        {
            "id": "9",
            "first_name": "Annetta",
            "last_name": "Weber",
            "gender": "female",
            "dob": "1933-09-07",
            "email": "jhayes@example.org",
            "phone": "(829) 762-3773 x93390",
            "website": "http://olson.net/",
            "address": "83530 Sydnie Ways Suite 284\nLake Ariane, RI 72273",
            "status": "inactive",
            "_links": {
                "self": {
                    "href": "https://gorest.co.in/public-api/users/9"
                },
                "edit": {
                    "href": "https://gorest.co.in/public-api/users/9"
                },
                "avatar": {
                    "href": "https://lorempixel.com/250/250/people/?45504"
                }
            }
        },
        {
            "id": "10",
            "first_name": "Tyree",
            "last_name": "Rau",
            "gender": "male",
            "dob": "1940-05-05",
            "email": "janis82@example.net",
            "phone": "838-621-1446",
            "website": "http://daniel.com/",
            "address": "617 Deanna Field Apt. 482\nLuettgenberg, MO 22531-5296",
            "status": "active",
            "_links": {
                "self": {
                    "href": "https://gorest.co.in/public-api/users/10"
                },
                "edit": {
                    "href": "https://gorest.co.in/public-api/users/10"
                },
                "avatar": {
                    "href": "https://lorempixel.com/250/250/people/?14844"
                }
            }
        },
        {
            "id": "11",
            "first_name": "Estel",
            "last_name": "Wisoky",
            "gender": "female",
            "dob": "1943-12-22",
            "email": "therman@example.net",
            "phone": "1-246-860-1223",
            "website": "http://jacobson.info/",
            "address": "35235 Jesse Walks Apt. 500\nKesslerburgh, NE 72955",
            "status": "inactive",
            "_links": {
                "self": {
                    "href": "https://gorest.co.in/public-api/users/11"
                },
                "edit": {
                    "href": "https://gorest.co.in/public-api/users/11"
                },
                "avatar": {
                    "href": "https://lorempixel.com/250/250/people/?30307"
                }
            }
        },
        {
            "id": "12",
            "first_name": "Willis",
            "last_name": "Marquardt",
            "gender": "male",
            "dob": "1941-03-06",
            "email": "lang.bernita@example.org",
            "phone": "783.584.2496 x142",
            "website": "https://www.gusikowski.org/quos-dolores-ab-sint-sequi",
            "address": "2711 Caden Greens\nCaroleview, WV 29087",
            "status": "active",
            "_links": {
                "self": {
                    "href": "https://gorest.co.in/public-api/users/12"
                },
                "edit": {
                    "href": "https://gorest.co.in/public-api/users/12"
                },
                "avatar": {
                    "href": "https://lorempixel.com/250/250/people/?28260"
                }
            }
        },
        {
            "id": "13",
            "first_name": "Dion",
            "last_name": "Ruecker",
            "gender": "male",
            "dob": "1993-07-02",
            "email": "weber.maxie@example.net",
            "phone": "(618) 845-5029",
            "website": "http://goldner.info/cumque-praesentium-corporis-non-aut-velit.html",
            "address": "2151 Lacy Lock\nDooleyhaven, NV 58016-8486",
            "status": "active",
            "_links": {
                "self": {
                    "href": "https://gorest.co.in/public-api/users/13"
                },
                "edit": {
                    "href": "https://gorest.co.in/public-api/users/13"
                },
                "avatar": {
                    "href": "https://lorempixel.com/250/250/people/?66434"
                }
            }
        },
        {
            "id": "14",
            "first_name": "Milford",
            "last_name": "Roob",
            "gender": "male",
            "dob": "1942-04-12",
            "email": "welch.gideon@example.com",
            "phone": "202-464-5163",
            "website": "http://armstrong.info/voluptate-deserunt-perferendis-quo-quia-minus",
            "address": "690 Crist Villages\nSouth Freddyport, CA 94531",
            "status": "active",
            "_links": {
                "self": {
                    "href": "https://gorest.co.in/public-api/users/14"
                },
                "edit": {
                    "href": "https://gorest.co.in/public-api/users/14"
                },
                "avatar": {
                    "href": "https://lorempixel.com/250/250/people/?31667"
                }
            }
        },
        {
            "id": "15",
            "first_name": "Jed",
            "last_name": "Bailey",
            "gender": "male",
            "dob": "2001-11-19",
            "email": "bode.skylar@example.com",
            "phone": "857-944-7426 x49233",
            "website": "http://www.wiegand.biz/",
            "address": "49466 Kihn Inlet\nNew Scottiehaven, WY 60701",
            "status": "inactive",
            "_links": {
                "self": {
                    "href": "https://gorest.co.in/public-api/users/15"
                },
                "edit": {
                    "href": "https://gorest.co.in/public-api/users/15"
                },
                "avatar": {
                    "href": "https://lorempixel.com/250/250/people/?26469"
                }
            }
        },
        {
            "id": "16",
            "first_name": "Verlie",
            "last_name": "Senger",
            "gender": "female",
            "dob": "1946-03-21",
            "email": "bernier.dave@example.com",
            "phone": "1-882-258-1660 x69988",
            "website": "http://kunze.net/molestias-magnam-ea-dolorem-qui-et-voluptate-minus-tenetur",
            "address": "587 Oberbrunner Coves Apt. 891\nJeradland, PA 84775",
            "status": "inactive",
            "_links": {
                "self": {
                    "href": "https://gorest.co.in/public-api/users/16"
                },
                "edit": {
                    "href": "https://gorest.co.in/public-api/users/16"
                },
                "avatar": {
                    "href": "https://lorempixel.com/250/250/people/?91819"
                }
            }
        },
        {
            "id": "17",
            "first_name": "Anabelle",
            "last_name": "Heller",
            "gender": "female",
            "dob": "1973-05-13",
            "email": "kaylie50@example.net",
            "phone": "413.327.3149",
            "website": "http://lemke.com/et-quos-sed-et-perferendis-quas-repellendus-consequatur",
            "address": "72820 Schroeder Highway\nLake Sidney, PA 94619-4595",
            "status": "active",
            "_links": {
                "self": {
                    "href": "https://gorest.co.in/public-api/users/17"
                },
                "edit": {
                    "href": "https://gorest.co.in/public-api/users/17"
                },
                "avatar": {
                    "href": "https://lorempixel.com/250/250/people/?87627"
                }
            }
        },
        {
            "id": "18",
            "first_name": "Maurice",
            "last_name": "Kovacek",
            "gender": "male",
            "dob": "1939-05-22",
            "email": "wilkinson.sierra@example.com",
            "phone": "+1 (702) 788-5528",
            "website": "http://www.auer.com/sed-itaque-aut-saepe-fugiat-vel",
            "address": "465 Lockman Course Suite 928\nLake Ibrahim, TX 89906-0948",
            "status": "inactive",
            "_links": {
                "self": {
                    "href": "https://gorest.co.in/public-api/users/18"
                },
                "edit": {
                    "href": "https://gorest.co.in/public-api/users/18"
                },
                "avatar": {
                    "href": "https://lorempixel.com/250/250/people/?46514"
                }
            }
        },
        {
            "id": "19",
            "first_name": "Cara",
            "last_name": "Connelly",
            "gender": "female",
            "dob": "1934-05-19",
            "email": "stephany10@example.org",
            "phone": "(718) 709-4352 x963",
            "website": "http://keebler.net/",
            "address": "82915 Owen Island\nSouth Sonia, MS 81330-4783",
            "status": "inactive",
            "_links": {
                "self": {
                    "href": "https://gorest.co.in/public-api/users/19"
                },
                "edit": {
                    "href": "https://gorest.co.in/public-api/users/19"
                },
                "avatar": {
                    "href": "https://lorempixel.com/250/250/people/?35361"
                }
            }
        },
        {
            "id": "20",
            "first_name": "Immanuel",
            "last_name": "Littel",
            "gender": "male",
            "dob": "2002-08-17",
            "email": "gertrude.wisoky@example.com",
            "phone": "+1-485-951-1703",
            "website": "http://www.graham.com/",
            "address": "49283 Erdman Row Apt. 759\nWest Daltonland, SD 46416",
            "status": "active",
            "_links": {
                "self": {
                    "href": "https://gorest.co.in/public-api/users/20"
                },
                "edit": {
                    "href": "https://gorest.co.in/public-api/users/20"
                },
                "avatar": {
                    "href": "https://lorempixel.com/250/250/people/?28078"
                }
            }
        }
    ]
}
