-----------------------Reading testcase for GORestAPI_Get_User in the Sheet Getdata--------------------------
-----------------------Getting Request data--------------------------
Request method:	GET
Request URI:	https://gorest.co.in/public-api/users
Proxy:			<none>
Request params:	<none>
Query params:	<none>
Form params:	<none>
Path params:	<none>
Headers:		Authorization=Bearer ibvjqtYKqkC1HlLfBOzp9mvVv_ftD4p6zhu9
				Accept=*/*
Cookies:		<none>
Multiparts:		<none>
Body:			<none>
-----------------------Getting Response data--------------------------
HTTP/1.1 200 OK
Server: nginx
Date: Sun, 06 Sep 2020 12:57:40 GMT
Content-Type: application/json; charset=utf-8
Transfer-Encoding: chunked
Connection: keep-alive
Vary: Accept-Encoding
X-Frame-Options: SAMEORIGIN
X-XSS-Protection: 1; mode=block
X-Content-Type-Options: nosniff
X-Download-Options: noopen
X-Permitted-Cross-Domain-Policies: none
Referrer-Policy: strict-origin-when-cross-origin
ETag: W/"46391734587a91bbf747ea8c15e35e1b"
Cache-Control: max-age=0, private, must-revalidate
X-Request-Id: c3960848-8657-4a15-99c4-2fe1dc6002cc
X-Runtime: 0.006465
Strict-Transport-Security: max-age=31536000; includeSubDomains
Vary: Origin
X-Frame-Options: sameorigin
Expect-CT: enforce; max-age=3600
Feature-Policy: geolocation none;midi none;notifications none;push none;sync-xhr none;microphone none;camera none;magnetometer none;gyroscope none;speaker self;vibrate none;fullscreen self;payment none;
Content-Encoding: gzip

{
    "code": 200,
    "meta": {
        "pagination": {
            "total": 1374,
            "pages": 69,
            "page": 1,
            "limit": 20
        }
    },
    "data": [
        {
            "id": 1,
            "name": "Miss Ranjeet Mehrotra",
            "email": "mehrotra_ranjeet_miss@donnelly.net",
            "gender": "Female",
            "status": "Active",
            "created_at": "2020-09-06T16:30:18.761+05:30",
            "updated_at": "2020-09-06T16:30:18.761+05:30"
        },
        {
            "id": 2,
            "name": "Sharmila Malik",
            "email": "sharmila_malik@murphy.net",
            "gender": "Male",
            "status": "Inactive",
            "created_at": "2020-09-06T16:30:18.775+05:30",
            "updated_at": "2020-09-06T16:30:18.775+05:30"
        },
        {
            "id": 3,
            "name": "Ajeet Desai",
            "email": "desai_ajeet@monahan.com",
            "gender": "Male",
            "status": "Inactive",
            "created_at": "2020-09-06T16:30:18.823+05:30",
            "updated_at": "2020-09-06T16:30:18.823+05:30"
        },
        {
            "id": 4,
            "name": "Aadidev Tandon IV",
            "email": "tandon_aadidev_iv@bartell.org",
            "gender": "Male",
            "status": "Active",
            "created_at": "2020-09-06T16:30:18.854+05:30",
            "updated_at": "2020-09-06T16:30:18.854+05:30"
        },
        {
            "id": 5,
            "name": "Prof. Giriraaj Dwivedi",
            "email": "prof_dwivedi_giriraaj@kerluke.net",
            "gender": "Female",
            "status": "Active",
            "created_at": "2020-09-06T16:30:18.877+05:30",
            "updated_at": "2020-09-06T16:30:18.877+05:30"
        },
        {
            "id": 6,
            "name": "Deb Acharya",
            "email": "deb_acharya@runolfsdottir.info",
            "gender": "Female",
            "status": "Inactive",
            "created_at": "2020-09-06T16:30:18.918+05:30",
            "updated_at": "2020-09-06T16:30:18.918+05:30"
        },
        {
            "id": 7,
            "name": "Umang Nambeesan",
            "email": "nambeesan_umang@ratke.info",
            "gender": "Male",
            "status": "Inactive",
            "created_at": "2020-09-06T16:30:18.951+05:30",
            "updated_at": "2020-09-06T16:30:18.951+05:30"
        },
        {
            "id": 8,
            "name": "Malati Verma",
            "email": "malati_verma@rutherford-macejkovic.biz",
            "gender": "Male",
            "status": "Inactive",
            "created_at": "2020-09-06T16:30:18.976+05:30",
            "updated_at": "2020-09-06T16:30:18.976+05:30"
        },
        {
            "id": 9,
            "name": "Mr. Parvati Asan",
            "email": "parvati_mr_asan@wiza-collier.com",
            "gender": "Male",
            "status": "Inactive",
            "created_at": "2020-09-06T16:30:19.004+05:30",
            "updated_at": "2020-09-06T16:30:19.004+05:30"
        },
        {
            "id": 10,
            "name": "Budhil Kaur",
            "email": "budhil_kaur@ohara-lowe.co",
            "gender": "Male",
            "status": "Inactive",
            "created_at": "2020-09-06T16:30:19.030+05:30",
            "updated_at": "2020-09-06T16:30:19.030+05:30"
        },
        {
            "id": 11,
            "name": "Msgr. Achalesvara Sethi",
            "email": "sethi_achalesvara_msgr@spencer.info",
            "gender": "Male",
            "status": "Active",
            "created_at": "2020-09-06T16:30:19.040+05:30",
            "updated_at": "2020-09-06T16:30:19.040+05:30"
        },
        {
            "id": 12,
            "name": "Ms. Abhaidev Adiga",
            "email": "ms_adiga_abhaidev@yundt.info",
            "gender": "Female",
            "status": "Active",
            "created_at": "2020-09-06T16:30:19.061+05:30",
            "updated_at": "2020-09-06T16:30:19.061+05:30"
        },
        {
            "id": 13,
            "name": "Bhima Namboothiri",
            "email": "bhima_namboothiri@hyatt.io",
            "gender": "Male",
            "status": "Inactive",
            "created_at": "2020-09-06T16:30:19.079+05:30",
            "updated_at": "2020-09-06T16:30:19.079+05:30"
        },
        {
            "id": 14,
            "name": "Achalesvara Sethi",
            "email": "achalesvara_sethi@friesen.co",
            "gender": "Female",
            "status": "Inactive",
            "created_at": "2020-09-06T16:30:19.090+05:30",
            "updated_at": "2020-09-06T16:30:19.090+05:30"
        },
        {
            "id": 15,
            "name": "Girija Khan",
            "email": "khan_girija@johnson-deckow.io",
            "gender": "Female",
            "status": "Active",
            "created_at": "2020-09-06T16:30:19.102+05:30",
            "updated_at": "2020-09-06T16:30:19.102+05:30"
        },
        {
            "id": 16,
            "name": "Gotum Nayar Ret.",
            "email": "nayar_ret_gotum@bednar.biz",
            "gender": "Male",
            "status": "Inactive",
            "created_at": "2020-09-06T16:30:19.115+05:30",
            "updated_at": "2020-09-06T16:30:19.115+05:30"
        },
        {
            "id": 17,
            "name": "Amrit Nair Sr.",
            "email": "amrit_nair_sr@hyatt.biz",
            "gender": "Female",
            "status": "Inactive",
            "created_at": "2020-09-06T16:30:19.166+05:30",
            "updated_at": "2020-09-06T16:30:19.166+05:30"
        },
        {
            "id": 18,
            "name": "Mandaakin Sethi",
            "email": "mandaakin_sethi@wyman-hyatt.io",
            "gender": "Male",
            "status": "Inactive",
            "created_at": "2020-09-06T16:30:19.178+05:30",
            "updated_at": "2020-09-06T16:30:19.178+05:30"
        },
        {
            "id": 19,
            "name": "Miss Gorakhnath Kaur",
            "email": "miss_kaur_gorakhnath@welch.net",
            "gender": "Female",
            "status": "Inactive",
            "created_at": "2020-09-06T16:30:19.211+05:30",
            "updated_at": "2020-09-06T16:30:19.211+05:30"
        },
        {
            "id": 20,
            "name": "Kanaka Asan",
            "email": "kanaka_asan@cruickshank.com",
            "gender": "Male",
            "status": "Active",
            "created_at": "2020-09-06T16:30:19.247+05:30",
            "updated_at": "2020-09-06T16:30:19.247+05:30"
        }
    ]
}

-----------------------Closing testcase for GORestAPI_Get_User in the Sheet Getdata--------------------------