-----------------------Reading testcase for GORestAPI_Get_User in the Sheet Getdata--------------------------
-----------------------Getting Request data--------------------------
Request method:	GET
Request URI:	https://gorest.co.in/public-api/users
Proxy:			<none>
Request params:	<none>
Query params:	<none>
Form params:	<none>
Path params:	<none>
Headers:		Authorization=Bearer ibvjqtYKqkC1HlLfBOzp9mvVv_ftD4p6zhu9
				Accept=*/*
Cookies:		<none>
Multiparts:		<none>
Body:			<none>
-----------------------Getting Response data--------------------------
HTTP/1.1 200 OK
Server: nginx
Date: Mon, 07 Sep 2020 17:06:52 GMT
Content-Type: application/json; charset=utf-8
Transfer-Encoding: chunked
Connection: keep-alive
Vary: Accept-Encoding
X-Frame-Options: SAMEORIGIN
X-XSS-Protection: 1; mode=block
X-Content-Type-Options: nosniff
X-Download-Options: noopen
X-Permitted-Cross-Domain-Policies: none
Referrer-Policy: strict-origin-when-cross-origin
ETag: W/"10c1942c6ce958052bfd049e540eb0ba"
Cache-Control: max-age=0, private, must-revalidate
X-Request-Id: e61d8c3d-9c16-451a-9bc6-799fe1214698
X-Runtime: 0.005913
Strict-Transport-Security: max-age=31536000; includeSubDomains
Vary: Origin
X-Frame-Options: sameorigin
Expect-CT: enforce; max-age=3600
Feature-Policy: geolocation none;midi none;notifications none;push none;sync-xhr none;microphone none;camera none;magnetometer none;gyroscope none;speaker self;vibrate none;fullscreen self;payment none;
Content-Encoding: gzip

{
    "code": 200,
    "meta": {
        "pagination": {
            "total": 1846,
            "pages": 93,
            "page": 1,
            "limit": 20
        }
    },
    "data": [
        {
            "id": 4,
            "name": "Miss Harit Mishra",
            "email": "miss_harit_mishra@hyatt-gleason.com",
            "gender": "Female",
            "status": "Inactive",
            "created_at": "2020-09-07T03:50:03.523+05:30",
            "updated_at": "2020-09-07T03:50:03.523+05:30"
        },
        {
            "id": 6,
            "name": "Esha Ahuja",
            "email": "ahuja_esha@jaskolski-cassin.name",
            "gender": "Female",
            "status": "Active",
            "created_at": "2020-09-07T03:50:03.535+05:30",
            "updated_at": "2020-09-07T03:50:03.535+05:30"
        },
        {
            "id": 7,
            "name": "Shrishti Bhattacharya",
            "email": "bhattacharya_shrishti@nienow.org",
            "gender": "Female",
            "status": "Inactive",
            "created_at": "2020-09-07T03:50:03.569+05:30",
            "updated_at": "2020-09-07T03:50:03.569+05:30"
        },
        {
            "id": 8,
            "name": "Achalesvara Varrier",
            "email": "achalesvara_varrier@greenholt-gleichner.io",
            "gender": "Female",
            "status": "Inactive",
            "created_at": "2020-09-07T03:50:03.575+05:30",
            "updated_at": "2020-09-07T03:50:03.575+05:30"
        },
        {
            "id": 9,
            "name": "Chidananda Khan",
            "email": "chidananda_khan@rempel-price.net",
            "gender": "Female",
            "status": "Active",
            "created_at": "2020-09-07T03:50:03.599+05:30",
            "updated_at": "2020-09-07T03:50:03.599+05:30"
        },
        {
            "id": 10,
            "name": "Sunita Mukhopadhyay VM",
            "email": "vm_sunita_mukhopadhyay@dickens-waters.org",
            "gender": "Female",
            "status": "Inactive",
            "created_at": "2020-09-07T03:50:03.606+05:30",
            "updated_at": "2020-09-07T03:50:03.606+05:30"
        },
        {
            "id": 11,
            "name": "Pramila Chattopadhyay CPA",
            "email": "chattopadhyay_pramila_cpa@dibbert.io",
            "gender": "Female",
            "status": "Active",
            "created_at": "2020-09-07T03:50:03.617+05:30",
            "updated_at": "2020-09-07T03:50:03.617+05:30"
        },
        {
            "id": 12,
            "name": "Lakshmidhar Panicker",
            "email": "lakshmidhar_panicker@kuvalis.io",
            "gender": "Male",
            "status": "Active",
            "created_at": "2020-09-07T03:50:03.621+05:30",
            "updated_at": "2020-09-07T03:50:03.621+05:30"
        },
        {
            "id": 13,
            "name": "Ekdant Gandhi",
            "email": "ekdant_gandhi@russel-walter.com",
            "gender": "Male",
            "status": "Inactive",
            "created_at": "2020-09-07T03:50:03.649+05:30",
            "updated_at": "2020-09-07T03:50:03.649+05:30"
        },
        {
            "id": 16,
            "name": "Manoj Pandey",
            "email": "manoj_pandey@morar.biz",
            "gender": "Female",
            "status": "Inactive",
            "created_at": "2020-09-07T03:50:03.719+05:30",
            "updated_at": "2020-09-07T03:50:03.719+05:30"
        },
        {
            "id": 17,
            "name": "Goswami Chaturvedi",
            "email": "chaturvedi_goswami@dicki.io",
            "gender": "Male",
            "status": "Inactive",
            "created_at": "2020-09-07T03:50:03.729+05:30",
            "updated_at": "2020-09-07T03:50:03.729+05:30"
        },
        {
            "id": 18,
            "name": "Aditeya Arora",
            "email": "aditeya_arora@mante.co",
            "gender": "Female",
            "status": "Inactive",
            "created_at": "2020-09-07T03:50:03.766+05:30",
            "updated_at": "2020-09-07T03:50:03.766+05:30"
        },
        {
            "id": 19,
            "name": "Avadhesh Bharadwaj",
            "email": "avadhesh_bharadwaj@davis.info",
            "gender": "Male",
            "status": "Inactive",
            "created_at": "2020-09-07T03:50:03.781+05:30",
            "updated_at": "2020-09-07T03:50:03.781+05:30"
        },
        {
            "id": 20,
            "name": "Prof. Niro Mishra",
            "email": "niro_prof_mishra@white.net",
            "gender": "Female",
            "status": "Inactive",
            "created_at": "2020-09-07T03:50:03.809+05:30",
            "updated_at": "2020-09-07T03:50:03.809+05:30"
        },
        {
            "id": 21,
            "name": "Saroja Rana DC",
            "email": "saroja_rana_dc@quigley.net",
            "gender": "Male",
            "status": "Active",
            "created_at": "2020-09-07T03:50:03.821+05:30",
            "updated_at": "2020-09-07T03:50:03.821+05:30"
        },
        {
            "id": 24,
            "name": "Sameer Desai IV",
            "email": "sameer_iv_desai@wolff.co",
            "gender": "Male",
            "status": "Inactive",
            "created_at": "2020-09-07T03:50:03.871+05:30",
            "updated_at": "2020-09-07T03:50:03.871+05:30"
        },
        {
            "id": 25,
            "name": "Prof. Shivakari Kapoor",
            "email": "kapoor_shivakari_prof@cole-nicolas.biz",
            "gender": "Male",
            "status": "Inactive",
            "created_at": "2020-09-07T03:50:03.899+05:30",
            "updated_at": "2020-09-07T03:50:03.899+05:30"
        },
        {
            "id": 26,
            "name": "Triloki Kapoor",
            "email": "triloki_kapoor@hartmann-mckenzie.info",
            "gender": "Male",
            "status": "Inactive",
            "created_at": "2020-09-07T03:50:03.910+05:30",
            "updated_at": "2020-09-07T03:50:03.910+05:30"
        },
        {
            "id": 27,
            "name": "Gov. Deeksha Varrier",
            "email": "varrier_gov_deeksha@labadie.io",
            "gender": "Female",
            "status": "Active",
            "created_at": "2020-09-07T03:50:03.944+05:30",
            "updated_at": "2020-09-07T03:50:03.944+05:30"
        },
        {
            "id": 28,
            "name": "Uttam Varma",
            "email": "varma_uttam@stracke-toy.org",
            "gender": "Male",
            "status": "Inactive",
            "created_at": "2020-09-07T03:50:03.955+05:30",
            "updated_at": "2020-09-07T03:50:03.955+05:30"
        }
    ]
}

-----------------------Closing testcase for GORestAPI_Get_User in the Sheet Getdata--------------------------