-----------------------Reading testcase for GORestAPI_Get_User in the Sheet Getdata--------------------------
-----------------------Getting Request data--------------------------
Request method:	GET
Request URI:	https://gorest.co.in/public-api/users
Proxy:			<none>
Request params:	<none>
Query params:	<none>
Form params:	<none>
Path params:	<none>
Headers:		Authorization=Bearer ibvjqtYKqkC1HlLfBOzp9mvVv_ftD4p6zhu9
				Accept=*/*
Cookies:		<none>
Multiparts:		<none>
Body:			<none>
-----------------------Getting Response data--------------------------
HTTP/1.1 200 OK
Server: nginx
Date: Tue, 08 Sep 2020 15:57:17 GMT
Content-Type: application/json; charset=utf-8
Transfer-Encoding: chunked
Connection: keep-alive
Vary: Accept-Encoding
X-Frame-Options: SAMEORIGIN
X-XSS-Protection: 1; mode=block
X-Content-Type-Options: nosniff
X-Download-Options: noopen
X-Permitted-Cross-Domain-Policies: none
Referrer-Policy: strict-origin-when-cross-origin
ETag: W/"42bfd93bdb8e2538b5141bd5fc3d822e"
Cache-Control: max-age=0, private, must-revalidate
X-Request-Id: b82342aa-182d-4823-95bb-39bb6564eb6f
X-Runtime: 0.006728
Strict-Transport-Security: max-age=31536000; includeSubDomains
Vary: Origin
X-Frame-Options: sameorigin
Expect-CT: enforce; max-age=3600
Feature-Policy: geolocation none;midi none;notifications none;push none;sync-xhr none;microphone none;camera none;magnetometer none;gyroscope none;speaker self;vibrate none;fullscreen self;payment none;
Content-Encoding: gzip

{
    "code": 200,
    "meta": {
        "pagination": {
            "total": 1798,
            "pages": 90,
            "page": 1,
            "limit": 20
        }
    },
    "data": [
        {
            "id": 1,
            "name": "Chandrakala Bhattacharya",
            "email": "chandrakala_bhattacharya@kuhlman.io",
            "gender": "Male",
            "status": "Active",
            "created_at": "2020-09-08T03:50:03.441+05:30",
            "updated_at": "2020-09-08T03:50:03.441+05:30"
        },
        {
            "id": 2,
            "name": "Jagdeep Gill",
            "email": "gill_jagdeep@dach-morar.co",
            "gender": "Male",
            "status": "Inactive",
            "created_at": "2020-09-08T03:50:03.457+05:30",
            "updated_at": "2020-09-08T03:50:03.457+05:30"
        },
        {
            "id": 3,
            "name": "Miss Aadidev Varrier",
            "email": "aadidev_miss_varrier@lindgren.info",
            "gender": "Male",
            "status": "Inactive",
            "created_at": "2020-09-08T03:50:03.461+05:30",
            "updated_at": "2020-09-08T03:50:03.461+05:30"
        },
        {
            "id": 4,
            "name": "Gita Panicker",
            "email": "gita_panicker@anderson.io",
            "gender": "Male",
            "status": "Inactive",
            "created_at": "2020-09-08T03:50:03.481+05:30",
            "updated_at": "2020-09-08T03:50:03.481+05:30"
        },
        {
            "id": 5,
            "name": "Malti Pillai",
            "email": "malti_pillai@kunze.name",
            "gender": "Female",
            "status": "Inactive",
            "created_at": "2020-09-08T03:50:03.520+05:30",
            "updated_at": "2020-09-08T03:50:03.520+05:30"
        },
        {
            "id": 6,
            "name": "Manisha Embranthiri",
            "email": "embranthiri_manisha@morar.io",
            "gender": "Female",
            "status": "Inactive",
            "created_at": "2020-09-08T03:50:03.543+05:30",
            "updated_at": "2020-09-08T03:50:03.543+05:30"
        },
        {
            "id": 7,
            "name": "Gayatri Ahuja",
            "email": "gayatri_ahuja@connelly.com",
            "gender": "Female",
            "status": "Active",
            "created_at": "2020-09-08T03:50:03.553+05:30",
            "updated_at": "2020-09-08T03:50:03.553+05:30"
        },
        {
            "id": 8,
            "name": "Bhagwati Kakkar",
            "email": "kakkar_bhagwati@hartmann-greenfelder.com",
            "gender": "Male",
            "status": "Active",
            "created_at": "2020-09-08T03:50:03.568+05:30",
            "updated_at": "2020-09-08T03:50:03.568+05:30"
        },
        {
            "id": 9,
            "name": "Himani Bharadwaj",
            "email": "bharadwaj_himani@champlin.biz",
            "gender": "Male",
            "status": "Active",
            "created_at": "2020-09-08T03:50:03.598+05:30",
            "updated_at": "2020-09-08T03:50:03.598+05:30"
        },
        {
            "id": 10,
            "name": "Deeptiman Sinha Esq.",
            "email": "sinha_deeptiman_esq@schamberger-hansen.co",
            "gender": "Male",
            "status": "Inactive",
            "created_at": "2020-09-08T03:50:03.619+05:30",
            "updated_at": "2020-09-08T03:50:03.619+05:30"
        },
        {
            "id": 11,
            "name": "Priyala Varrier",
            "email": "priyala_varrier@bashirian.co",
            "gender": "Female",
            "status": "Inactive",
            "created_at": "2020-09-08T03:50:03.622+05:30",
            "updated_at": "2020-09-08T03:50:03.622+05:30"
        },
        {
            "id": 12,
            "name": "Dwaipayan Shah",
            "email": "shah_dwaipayan@harber.io",
            "gender": "Female",
            "status": "Inactive",
            "created_at": "2020-09-08T03:50:03.651+05:30",
            "updated_at": "2020-09-08T03:50:03.651+05:30"
        },
        {
            "id": 13,
            "name": "Deeksha Varman",
            "email": "varman_deeksha@kautzer.biz",
            "gender": "Female",
            "status": "Inactive",
            "created_at": "2020-09-08T03:50:03.661+05:30",
            "updated_at": "2020-09-08T03:50:03.661+05:30"
        },
        {
            "id": 14,
            "name": "Akshat Khanna",
            "email": "khanna_akshat@jacobi.com",
            "gender": "Male",
            "status": "Active",
            "created_at": "2020-09-08T03:50:03.691+05:30",
            "updated_at": "2020-09-08T03:50:03.691+05:30"
        },
        {
            "id": 15,
            "name": "Keerti Varrier",
            "email": "varrier_keerti@franecki.io",
            "gender": "Female",
            "status": "Active",
            "created_at": "2020-09-08T03:50:03.701+05:30",
            "updated_at": "2020-09-08T03:50:03.701+05:30"
        },
        {
            "id": 16,
            "name": "Aadinath Talwar",
            "email": "aadinath_talwar@bergstrom.io",
            "gender": "Male",
            "status": "Inactive",
            "created_at": "2020-09-08T03:50:03.725+05:30",
            "updated_at": "2020-09-08T03:50:03.725+05:30"
        },
        {
            "id": 17,
            "name": "Miss Chetan Ganaka",
            "email": "miss_chetan_ganaka@kertzmann.info",
            "gender": "Male",
            "status": "Active",
            "created_at": "2020-09-08T03:50:03.733+05:30",
            "updated_at": "2020-09-08T03:50:03.733+05:30"
        },
        {
            "id": 18,
            "name": "Chetan Bhattacharya",
            "email": "bhattacharya_chetan@wintheiser.net",
            "gender": "Female",
            "status": "Inactive",
            "created_at": "2020-09-08T03:50:03.754+05:30",
            "updated_at": "2020-09-08T03:50:03.754+05:30"
        },
        {
            "id": 19,
            "name": "Kannan Naik",
            "email": "kannan_naik@jerde.net",
            "gender": "Female",
            "status": "Inactive",
            "created_at": "2020-09-08T03:50:03.761+05:30",
            "updated_at": "2020-09-08T03:50:03.761+05:30"
        },
        {
            "id": 20,
            "name": "Rahul Abbott",
            "email": "rahul_abbott@fahey.co",
            "gender": "Male",
            "status": "Inactive",
            "created_at": "2020-09-08T03:50:03.786+05:30",
            "updated_at": "2020-09-08T03:50:03.786+05:30"
        }
    ]
}

-----------------------Closing testcase for GORestAPI_Get_User in the Sheet Getdata--------------------------